arc/model.vcd
$date
    October 21, 2015
$end
$version
    Some cryptic MLIR magic
$end
$timescale 1ns $end
$scope module Dut $end
$var wire 1 " clk $end
$var wire 8 # o [7:0] $end
$scope module internal $end
$var wire 1 $ clk $end
$var reg 8 % reg [7:0] $end
$var wire 8 & o [7:0] $end
$upscope $end
$upscope $end
$enddefinitions $end
$dumpvars
0"
b00000000 #
0$
b00000000 %
b00000000 &
#0
#1
1"
b00000001 #
1$
b00000001 %
b00000001 &
#2
0"
0$
#3
1"
b00000010 #
1$
b00000010 %
b00000010 &
#4
0"
0$
#5
1"
b00000011 #
1$
b00000011 %
b00000011 &
#6
0"
0$
#7
1"
b00000100 #
1$
b00000100 %
b00000100 &
#8
0"
0$
#9
1"
b00000101 #
1$
b00000101 %
b00000101 &
#10
0"
0$
#11
1"
b00000110 #
1$
b00000110 %
b00000110 &
#12
0"
0$
#13
1"
b00000111 #
1$
b00000111 %
b00000111 &
#14
0"
0$
#15
1"
b00001000 #
1$
b00001000 %
b00001000 &
#16
0"
0$
#17
1"
b00001001 #
1$
b00001001 %
b00001001 &
#18
0"
0$
#19
1"
b00001010 #
1$
b00001010 %
b00001010 &
#20
0"
0$
#21
1"
b00001011 #
1$
b00001011 %
b00001011 &
#22
0"
0$
#23
1"
b00001100 #
1$
b00001100 %
b00001100 &
#24
0"
0$
#25
1"
b00001101 #
1$
b00001101 %
b00001101 &
#26
0"
0$
#27
1"
b00001110 #
1$
b00001110 %
b00001110 &
#28
0"
0$
#29
1"
b00001111 #
1$
b00001111 %
b00001111 &
#30
0"
0$
#31
1"
b00010000 #
1$
b00010000 %
b00010000 &
#32
0"
0$
#33
1"
b00010001 #
1$
b00010001 %
b00010001 &
#34
0"
0$
#35
1"
b00010010 #
1$
b00010010 %
b00010010 &
#36
0"
0$
#37
1"
b00010011 #
1$
b00010011 %
b00010011 &
#38
0"
0$
#39
1"
b00010100 #
1$
b00010100 %
b00010100 &
